Regex in R
…
sum_babynames %>%
  filter(str_detect(name, "[HhZz]ero")) %>%
  group_by(sex) %>%
  #filter(sex == "M") %>%
  #count() %>% 
  print()

## # A tibble: 35 x 3
## # Groups:   sex [2]
##    name     sex       n
##    <chr>    <chr> <int>
##  1 Acheron  M        39
##  2 Cherod   M         6
##  3 Cherokee F      2337
##  4 Cherokee M       332
##  5 Cherol   F        17
##  6 Cherolyn F        60
##  7 Cheron   F       635
##  8 Cheron   M        99
##  9 Cheronda F       164
## 10 Cherone  F         7
## # ... with 25 more rows
…
